Statistics II - Data Visualization – Scatter Plots & Relationships
…
Use the tidyverse, janitor, and ggthemes libraries

2

Read the CSV file and then do the following ( %>% )

3

Show it as a tibble and save it as hate_crimes

Have a look at the data

hate_crimes

# A tibble: 50 × 13
   state             median_income unemployment metro_pop highschool non_citizen
   <chr>                     <int>        <dbl>     <dbl>      <dbl>       <dbl>
 1 Alabama                   42278        0.06       0.64      0.821        0.02
 2 Alaska                    67629        0.064      0.63      0.914        0.04
 3 Arizona                   49254        0.063      0.9       0.842        0.1 
 4 Arkansas                  44922        0.052      0.69      0.824        0.04
 5 California                60487        0.059      0.97      0.806        0.13
 6 Colorado                  60940        0.04       0.8       0.893        0.06
 7 Connecticut               70161        0.052      0.94      0.886        0.06
 8 Delaware                  57522        0.049      0.9       0.874        0.05
 9 District of Colu…         68277        0.067      1         0.871        0.11
10 Florida                   46140        0.052      0.96      0.853        0.09
# ℹ 40 more rows
# ℹ 7 more variables: white_poverty <dbl>, gini_index <dbl>, non_white <dbl>,
#   trump_vote <dbl>, hate_crimes_splc <dbl>, hate_crimes_fbi <dbl>,
#   region <chr>
…
