Statistics II - Data Visualization – Introduction to ggplot2
…
3

show it as a tibble: a tibble is a nice way to see our data. With -> earnings we are saying that save this data set into our memory so we can use it whenever we want.

Have a look at the data

lets see how does the data look like. There are two ways:

1earnings

1

Just writing the name of the data shows us how it looks like on the console

# A tibble: 200 × 3
      id gender income
   <int> <chr>   <dbl>
 1     1 Male   19376.
 2     2 Male    9540.
 3     3 Male   10501.
 4     4 Male   26262.
 5     5 Male   23313.
 6     6 Male   15835.
 7     7 Male   12728.
 8     8 Female 22247.
 9     9 Female 41456.
10    10 Male   16254.
# ℹ 190 more rows
…
We are trying to find out how income is distributed.

Income is a continuous variable.

To see how does a continuous variable is distributed: use a histogram or a density plot.

How is income distributed?

Distribution of one continuous variable

Histogram

Lets have a look at the data again

# A tibble: 200 × 3
      id gender income
   <int> <chr>   <dbl>
 1     1 Male   19376.
 2     2 Male    9540.
 3     3 Male   10501.
 4     4 Male   26262.
 5     5 Male   23313.
 6     6 Male   15835.
 7     7 Male   12728.
 8     8 Female 22247.
 9     9 Female 41456.
10    10 Male   16254.
# ℹ 190 more rows
…
Draw one x axis and one y axis,

On x axis we have income, in bins of 1000, starting from 9000.

On y axis we always have count, showing the number of observations that belongs to each bin.

How is income distributed?

Distribution of one continuous variable

Histogram

Lets plot the first 10 observations.

# A tibble: 200 × 3
      id gender income
   <int> <chr>   <dbl>
 1     1 Male   19376.
 2     2 Male    9540.
 3     3 Male   10501.
 4     4 Male   26262.
 5     5 Male   23313.
 6     6 Male   15835.
 7     7 Male   12728.
 8     8 Female 22247.
 9     9 Female 41456.
10    10 Male   16254.
# ℹ 190 more rows
…
