Statistics II - Data Visualization – ggplot2’ye Giriş
…
3

tibble olarak göster: tibble verimizi görmenin güzel bir yolu. -> earnings ile “bu veri setini belleğe (RAM) kaydet, istediğimde earnings yazarak kullanayım” diyoruz.

Veriyi İnceleme

Verinin nasıl göründüğüne bakalım. İki yol var:

1earnings

1

Verinin adını yazmak konsolda nasıl göründüğünü gösterir

# A tibble: 200 × 3
      id gender income
   <int> <chr>   <dbl>
 1     1 Male   19376.
 2     2 Male    9540.
 3     3 Male   10501.
 4     4 Male   26262.
 5     5 Male   23313.
 6     6 Male   15835.
 7     7 Male   12728.
 8     8 Female 22247.
 9     9 Female 41456.
10    10 Male   16254.
# ℹ 190 more rows
…
Gelirin nasıl dağıldığını bulmaya çalışıyoruz.

Gelir sürekli (continious) bir değişken.

Sürekli bir değişkenin nasıl dağıldığını görmek için: histogram veya yoğunluk grafiği kullabiliriz.

Gelir Nasıl Dağılıyor?

Sürekli bir değişkenin dağılımı

Histogram

Veriye tekrar bakalım

# A tibble: 200 × 3
      id gender income
   <int> <chr>   <dbl>
 1     1 Male   19376.
 2     2 Male    9540.
 3     3 Male   10501.
 4     4 Male   26262.
 5     5 Male   23313.
 6     6 Male   15835.
 7     7 Male   12728.
 8     8 Female 22247.
 9     9 Female 41456.
10    10 Male   16254.
# ℹ 190 more rows
…
x ve y ekseni çizelim,

x ekseninde binler halinde parçalara ayrılmış gelir var, 9000’den başlayan 1000TL’lik binlerle.

y ekseninde her zaman sayı var; her bine ait gözlem sayısını gösteriyor.

Gelir Nasıl Dağılmış?

Sürekli bir değişkenin dağılımı

Histogram

İlk 10 gözlemi çizelim.

# A tibble: 200 × 3
      id gender income
   <int> <chr>   <dbl>
 1     1 Male   19376.
 2     2 Male    9540.
 3     3 Male   10501.
 4     4 Male   26262.
 5     5 Male   23313.
 6     6 Male   15835.
 7     7 Male   12728.
 8     8 Female 22247.
 9     9 Female 41456.
10    10 Male   16254.
# ℹ 190 more rows
…
